<svg xmlns="http://www.w3.org/2000/svg" width="39.5" height="39.5" viewBox="0 0 39.5 39.5">
  <path d="M19.75 0C8.843 0 0 8.842 0 19.75S8.843 39.5 19.75 39.5 39.5 30.658 39.5 19.75 30.657 0 19.75 0zM8.889 24.471c-2.63-.012-4.755-2.152-4.745-4.785.011-2.63 2.155-4.755 4.785-4.746 2.63.013 4.756 2.153 4.745 4.785-.011 2.632-2.154 4.755-4.785 4.746zm10.796 10.884c-2.631-.011-4.755-2.153-4.744-4.783.011-2.631 2.153-4.758 4.784-4.746 2.63.011 4.755 2.154 4.746 4.785-.013 2.631-2.155 4.755-4.786 4.744zM17.667 19.75c0-1.15.933-2.083 2.083-2.083 1.15 0 2.083.933 2.083 2.083 0 1.15-.933 2.083-2.083 2.083-1.15 0-2.083-.933-2.083-2.083zm2.108-6.076c-2.631-.011-4.755-2.154-4.745-4.785.011-2.631 2.153-4.755 4.785-4.744 2.63.01 4.755 2.153 4.744 4.785-.011 2.629-2.152 4.756-4.784 4.744zM30.57 24.561c-2.631-.012-4.756-2.151-4.744-4.785.011-2.63 2.154-4.755 4.783-4.743 2.632.011 4.757 2.152 4.746 4.782-.009 2.63-2.154 4.755-4.785 4.746z"/>
</svg>
