<svg xmlns="http://www.w3.org/2000/svg" viewBox="0 0 30 14">
  <title>soundcloud</title>
  <g data-name="soundcloud">
    <path d="M.49 9c-.19 0-.35.06-.35.13L0 11.87l.14 1c0 .07.16.13.35.13s.35-.06.35-.13l.15-1-.14-2.74C.84 9.06.69 9 .49 9z"/>
    <path d="M14.49 1a.4.4 0 0 0-.35.44L14 10l.14 3.57a.36.36 0 1 0 .7 0L15 10l-.15-8.57a.4.4 0 0 0-.36-.43z"/>
    <path d="M26.39 6a3.43 3.43 0 0 0-1.4.38A6.64 6.64 0 0 0 18.66 0C17 0 16 .17 16 1v12.53a.46.46 0 0 0 .39.47h10A3.8 3.8 0 0 0 30 10a3.86 3.86 0 0 0-3.61-4z"/>
    <path d="M12.49 2a.38.38 0 0 0-.35.4L12 10l.14 3.6a.35.35 0 1 0 .7 0L13 10l-.15-7.6a.38.38 0 0 0-.36-.4z"/>
    <path d="M10.49 3a.36.36 0 0 0-.35.37L10 10l.14 3.64a.35.35 0 1 0 .7 0L11 10l-.15-6.63a.37.37 0 0 0-.36-.37z"/>
    <path d="M8.49 4a.35.35 0 0 0-.35.33L8 10l.14 3.67a.35.35 0 0 0 .7 0L9 10l-.15-5.67A.35.35 0 0 0 8.49 4z"/>
    <path d="M6.49 5a.33.33 0 0 0-.35.3L6 11l.14 2.7a.35.35 0 0 0 .7 0L7 11l-.15-5.7a.33.33 0 0 0-.36-.3z"/>
    <path d="M4.49 7c-.19 0-.35.11-.35.23L4 12l.14 1.74c0 .13.16.23.35.23s.35-.11.35-.23L5 12l-.15-4.77C4.84 7.11 4.69 7 4.49 7z"/>
    <path d="M2.49 8c-.19 0-.35.09-.35.2L2 12.31l.14 1.49c0 .11.16.2.35.2s.35-.09.35-.2L3 12.31 2.85 8.2c-.01-.11-.16-.2-.36-.2z"/>
  </g>
</svg>