<svg xmlns="http://www.w3.org/2000/svg" viewBox="0 0 11.25 17.99">
  <title>tumblr</title>
  <path data-name="tumblr" d="M6.75 7.87V12a8.08 8.08 0 0 0 .1 1.94 1.64 1.64 0 0 0 .69.78 2.59 2.59 0 0 0 1.35.35 3.67 3.67 0 0 0 2.36-.71v2.71a10 10 0 0 1-2.07.71 8.55 8.55 0 0 1-2 .22 5.5 5.5 0 0 1-1.94-.31 4.65 4.65 0 0 1-1.62-.89 3.12 3.12 0 0 1-.93-1.22 5.18 5.18 0 0 1-.26-1.89V7.38H0V4.83a6.35 6.35 0 0 0 2-1 5 5 0 0 0 1.2-1.55A6.85 6.85 0 0 0 3.85 0h2.9v4.5h4.5v3.37z"/>
</svg>