<svg xmlns="http://www.w3.org/2000/svg" viewBox="0 0 30 20">
  <title>youtube</title>
  <path data-name="youtube" d="M25 0H5a5 5 0 0 0-5 5v10a5 5 0 0 0 5 5h20a5 5 0 0 0 5-5V5a5 5 0 0 0-5-5zm-5.52 10.92l-8.15 4.86c-.86.51-1.33.1-1.33-.92V5.14c0-1 .45-1.43 1.31-.93l8.16 4.85a1.09 1.09 0 0 1 .01 1.86z"/>
</svg>